ISSS608 Visual Analytics and Applications - Take Home Exercise 2
…
Next, we use the count() function to determine the number of companies that are mostly associated to a specific shipping country. This may provide a sense on where a company may have originated from. Dataframe nodes_y_22 will be used for this analyses since there are more nodes relative to nodes_ym_10. A quick view of the data indicates that these companies are associated with 45 different countries.

Show the Code

summary_shpcountry <- nodes_ym_outlier %>% count(shpcountry)

summary_shpcountry <- summary_shpcountry %>%
  group_by(shpcountry) %>%
  summarise(count = sum(n))

summary_shpcountry

# A tibble: 45 × 2
   shpcountry   count
   <chr>        <int>
 1 -22004           1
 2 Alverossia       6
 3 Arreciviento     8
 4 Arvekalia        1
 5 Brindivaria      3
 6 Coral Solis      3
 7 Coralada         4
 8 Coralmarica      6
 9 Faraluna         4
10 Gavanovia        2
# ℹ 35 more rows
…
Next, using the groupby() and summarize() function, we will review the shipment trends across the time period of the provided data.

Show the Code

summary_yearmonth <- edges_ym_outlier %>%
  group_by(yearmonth) %>%
  summarize(total_weight = sum(sumweightkg), total_count = sum(weight)) %>%
  ungroup() %>%
  mutate(avg_shipmentwt = total_weight / total_count)

# Check the updated summary_yearmonth data
print(summary_yearmonth)

# A tibble: 84 × 4
   yearmonth  total_weight total_count avg_shipmentwt
   <date>            <int>       <int>          <dbl>
 1 2028-01-01     27266185         532         51252.
 2 2028-02-01     30711115         503         61056.
 3 2028-03-01     35236780         653         53961.
 4 2028-04-01     26890370         535         50262.
 5 2028-05-01     36245285         699         51853.
 6 2028-06-01     37529860         724         51837.
 7 2028-07-01     35730130         579         61710.
 8 2028-08-01     38647305         696         55528.
 9 2028-09-01     32434580         629         51565.
10 2028-10-01     36289635         620         58532.
# ℹ 74 more rows
…
