ISSS608 Visual Analytics and Applications - Take-Home Exercise 1
…
Results from running the spec() function highlighted that multiple columns are not set to the most appropriate data type. For example, participantID should be viewed as a categorical variable, as opposed to a continuous numeric variable. We will use the mutate function to update the data types.

participants <- participants %>% mutate_at(c('participantId', 'interestGroup', 'educationLevel'), as.factor)

We also check the dataset for duplicated participants. Note that we have 1,011 participants in our dataset, instead of 1,000. No duplicates were found.

participants %>% distinct(participantId, .keep_all= TRUE)

# A tibble: 1,011 × 7
   participantId householdSize haveKids   age educationLevel      interestGroup
   <fct>                 <dbl> <lgl>    <dbl> <fct>               <fct>        
 1 0                         3 TRUE        36 HighSchoolOrCollege H            
 2 1                         3 TRUE        25 HighSchoolOrCollege B            
 3 2                         3 TRUE        35 HighSchoolOrCollege A            
 4 3                         3 TRUE        21 HighSchoolOrCollege I            
 5 4                         3 TRUE        43 Bachelors           H            
 6 5                         3 TRUE        32 HighSchoolOrCollege D            
 7 6                         3 TRUE        26 HighSchoolOrCollege I            
 8 7                         3 TRUE        27 Bachelors           A            
 9 8                         3 TRUE        20 Bachelors           G            
10 9                         3 TRUE        35 Bachelors           D            
# ℹ 1,001 more rows
# ℹ 1 more variable: joviality <dbl>
…
cols(
  participantId = col_double(),
  timestamp = col_datetime(format = ""),
  category = col_character(),
  amount = col_double()
)

finance <-finance %>% mutate_at(c('participantId', 'category'), as.factor)

Unlike the participants data, 1,113 duplicated rows were found in the Finance dataset. These rows will be removed from subsequent analyses.

finance_new <- finance %>% distinct()
finance_new

# A tibble: 1,512,523 × 4
   participantId timestamp           category  amount
   <fct>         <dttm>              <fct>      <dbl>
 1 0             2022-03-01 00:00:00 Wage      2473. 
 2 0             2022-03-01 00:00:00 Shelter   -555. 
 3 0             2022-03-01 00:00:00 Education  -38.0
 4 1             2022-03-01 00:00:00 Wage      2047. 
 5 1             2022-03-01 00:00:00 Shelter   -555. 
 6 1             2022-03-01 00:00:00 Education  -38.0
 7 2             2022-03-01 00:00:00 Wage      2437. 
 8 2             2022-03-01 00:00:00 Shelter   -557. 
 9 2             2022-03-01 00:00:00 Education  -12.8
10 3             2022-03-01 00:00:00 Wage      2367. 
# ℹ 1,512,513 more rows

finance

# A tibble: 1,513,636 × 4
   participantId timestamp           category  amount
   <fct>         <dttm>              <fct>      <dbl>
 1 0             2022-03-01 00:00:00 Wage      2473. 
 2 0             2022-03-01 00:00:00 Shelter   -555. 
 3 0             2022-03-01 00:00:00 Education  -38.0
 4 1             2022-03-01 00:00:00 Wage      2047. 
 5 1             2022-03-01 00:00:00 Shelter   -555. 
 6 1             2022-03-01 00:00:00 Education  -38.0
 7 2             2022-03-01 00:00:00 Wage      2437. 
 8 2             2022-03-01 00:00:00 Shelter   -557. 
 9 2             2022-03-01 00:00:00 Education  -12.8
10 3             2022-03-01 00:00:00 Wage      2367. 
# ℹ 1,513,626 more rows

In order to look at spending patterns, it maybe useful to look at these trends on a yearly or monhtly basis. As such, new variables were created to extract year and month data from the timestamp.

finance$timestamp <- as.Date(finance$timestamp, format = "%Y-%m-%d")

finance$Month <- format(as.Date(finance$timestamp), "%m")
finance$Year <- format(as.Date(finance$timestamp), "%Y")
finance$Month_Yr <- format(as.Date(finance$timestamp), "%Y-%m")

finance

# A tibble: 1,513,636 × 7
   participantId timestamp  category  amount Month Year  Month_Yr
   <fct>         <date>     <fct>      <dbl> <chr> <chr> <chr>   
 1 0             2022-03-01 Wage      2473.  03    2022  2022-03 
 2 0             2022-03-01 Shelter   -555.  03    2022  2022-03 
 3 0             2022-03-01 Education  -38.0 03    2022  2022-03 
 4 1             2022-03-01 Wage      2047.  03    2022  2022-03 
 5 1             2022-03-01 Shelter   -555.  03    2022  2022-03 
 6 1             2022-03-01 Education  -38.0 03    2022  2022-03 
 7 2             2022-03-01 Wage      2437.  03    2022  2022-03 
 8 2             2022-03-01 Shelter   -557.  03    2022  2022-03 
 9 2             2022-03-01 Education  -12.8 03    2022  2022-03 
10 3             2022-03-01 Wage      2367.  03    2022  2022-03 
# ℹ 1,513,626 more rows
