ISSS608 Visual Analytics and Applications - take-home_Ex01
…
fin_new$timestamp <- as.Date(fin_new$timestamp, format = "%Y-%m-%d")

#Extracting month data
fin_new$Month <- month(as.Date(fin_new$timestamp))

#need to set year month because got 2 years

Under the amount variable in FinancialJournal, inflow and outflow of money transacted is recorded by positive and negative numbers, respectively. This may cause confusion when visualising the data. As such, we will process the data and use the absolute values.

Code

fin_new$amount <- abs(fin_new$amount)
fin_new

# A tibble: 1,512,523 × 5
   participantId timestamp  category  amount Month
   <fct>         <date>     <fct>      <dbl> <dbl>
 1 0             2022-03-01 Wage      2473.      3
 2 0             2022-03-01 Shelter    555.      3
 3 0             2022-03-01 Education   38.0     3
 4 1             2022-03-01 Wage      2047.      3
 5 1             2022-03-01 Shelter    555.      3
 6 1             2022-03-01 Education   38.0     3
 7 2             2022-03-01 Wage      2437.      3
 8 2             2022-03-01 Shelter    557.      3
 9 2             2022-03-01 Education   12.8     3
10 3             2022-03-01 Wage      2367.      3
# ℹ 1,512,513 more rows
…
