ISSS608 Visual Analytics and Applications - Take Home Exercise 3
…
The code chunk below helps us filter out categories based on what we have assessed as useful. For example, words like fish or seafood would be included, but words like adhesives or bags will be excluded. The result is a shorter list of nodes with firms

Code

# List of words to filter by
words_to_include <- c("fish", "seafood", "frozen", "food", "fresh", "shrimp", "salmon", "tuna", "shellfish", "crabs", "squid", "mollusks", "crustaceans", "lobster", "oysters", "clams", "bass", "trout", "tuna", "sea", "ocean", "shipping", "shipments", "shipment", "pier", "marine", NA)

nodes_final <- nodes_distinct %>%
  filter(str_detect(product_services, paste(words_to_include, collapse = "|", sep = "")) | is.na(product_services))

print(nodes_final)

# A tibble: 22,475 × 5
   id                                 country type  revenue_omu product_services
   <chr>                              <chr>   <chr>       <dbl> <chr>           
 1 Harmon, Edwards and Bates          ZH      Comp…   75070435. Discount superm…
 2 Punjab s Marine conservation       Riodel… Comp…   72167572. Beef, pork, chi…
 3 Fisher Group                       ZH      Comp…   29981457. Steel (marketin…
 4 Morales, Young and Taylor          ZH      Comp…   23739782. Processed foods…
 5 Morgan LLC                         ZH      Comp…   17939781. Animal feed, an…
 6 Neptune's Harvest LC Transport     Riodel… Comp…    8726579. Frozen whole an…
 7 Victoria Falls   Limited Liabilit… Rio Is… Comp…    8014806. Domestic and in…
 8 Caracola del Mar NV Family         Rio Is… Comp…    7085566. Canned, frozen …
 9 Meyer-Ho                           ZH      Comp…    7000283. <NA>            
10 The Sea Lion NV Marine biology     Oceanus Comp…    6264744. One- to five-da…
# ℹ 22,465 more rows
…
